507226 317490 449
547753 713230 509
375637 839783 525
765690 192412 509
747726 783778 468
214122 707129 509
409297 720523 509
481158 231765 449
747697 586767 509
404042 610676 470
378428 846553 525
34718 169514 383
257197 114069 443
75576 414077 449
367121 433055 449
399895 874346 525
750544 463999 509
103928 126180 354
820134 869617 525
834943 84211 509
653395 565417 509
791340 579043 509
285939 788849 509
810807 549987 509
891968 214849 525
677015 270395 509
61401 711732 509
956260 834949 525
342152 31835 443
249025 709273 509
464889 165271 449
99970 215432 383
145621 203897 383
857963 965754 507
589866 209258 470
49965 759612 509
774674 357656 509
338654 60612 443
146504 149460 357
610598 554823 434
364308 287612 441
341570 942060 525
515696 297829 470
293360 857847 525
846016 58736 525
567119 310904 470
740358 183441 509
42688 885979 525
387337 417002 449
851732 493554 525
626259 418048 470
253165 400932 441
775703 591818 509
977895 438559 525
257630 104845 443
509733 138289 449
908808 851302 445
80349 424503 449
149131 890060 525
282350 995146 525
948796 365820 525
822401 689153 504
549260 381440 470
575131 452949 470
314794 943215 525
462854 941052 525
361262 716019 509
858336 653317 525
824188 352582 509
608227 81817 470
457426 117959 449
220106 366234 443
969261 816806 525
307088 634743 509
706865 589437 509
146240 172012 383
471609 968640 525
377517 537220 470
866432 468999 525
506520 181225 449
412213 969374 525
638628 289827 509
201744 13315 383
943143 542283 525
882249 551369 525
624100 856026 525
185679 360557 443
222259 154939 386
177362 45699 383
306033 400578 441
151487 452272 449
88942 623095 470
937264 466458 525
676667 803695 504
935456 699538 525
501271 347669 449
668911 656250 442
153847 387006 443
185917 613341 470
929289 68165 525
681061 69740 509
924190 866739 476
430296 662801 509
538030 124009 470
708499 844062 525
524586 859985 525
296334 613527 470
999432 233597 525
596336 676098 509
553643 531792 452
375635 54913 443
395812 560898 470
227514 549658 470
464255 413430 444
162998 393543 443
481594 360410 449
979634 922136 507
227148 409929 443
584936 765177 509
50289 809786 509
125591 574875 470
669770 421924 509
704753 669201 504
171872 301089 443
861650 725514 525
349232 753637 509
296778 745043 509
830886 524291 509
811052 295140 509
454073 974049 525
205035 935666 525
850810 184668 525
374153 77957 443
594597 959088 525
359486 644885 509
768873 485076 509
736111 954995 525
423351 957216 525
140547 595222 470
774656 518549 509
837087 123887 509
272185 133864 443
868929 103070 525
174506 196332 365
398209 628578 509
686732 603243 509
80596 537541 470
304263 971100 525
615497 898859 525
930188 491334 525
60095 215412 383
976409 312558 525
686758 916111 525
269773 827305 509
27684 560780 470
345853 864770 525
684666 618037 509
514985 69946 470
237458 205843 443
266277 152018 443
350772 953008 525
271613 431367 449
490548 575875 470
918819 622396 525
991085 849006 507
630082 51179 509
580769 122842 470
880088 267527 525
38953 666212 509
94831 66636 351
226991 957035 525
931406 911656 476
91423 962742 525
497953 328880 449
168584 280581 443
480897 519356 470
233588 752509 509
467074 240487 449
844735 385892 525
379235 835819 509
751249 9316 509
403350 332018 441
132157 283437 443
115896 171109 383
466001 727078 509
754097 692991 504
684112 201854 509
120999 775534 509
164595 135303 383
104413 849531 525
415884 101661 449
885238 165823 525
370522 352311 410
406310 215256 443
254555 301896 407
567427 5803 470
827563 487128 509
854172 959719 507
770564 970067 525
647180 752916 504
213496 917628 525
445907 897607 525
119481 83257 354
189492 800427 509
218559 810256 509
649957 634442 416
428269 51546 449
800265 798790 375
403857 722926 509
530397 658411 509
541173 614175 452
180565 368735 443
101302 34737 351
328453 388218 441
521155 491984 470
141133 734651 509
409611 103391 443
148609 45443 375
186647 854453 525
845870 405206 525
664708 12178 509
555999 92976 470
63724 356263 443
408117 983932 525
595540 938514 525
158694 136712 383
552688 339258 470
505446 653990 509
373994 350251 410
558559 411501 470
358586 699691 509
662503 768197 504
803082 327463 509
